{
  "type": "service_account",
  "project_id": "mobile-2f635",
  "private_key_id": "16272cb37d304973ebe2e32329c8c53c7f68e2fb",
  "private_key": "-----BEGIN PRIVATE KEY-----\nMIIEvAIBADANBgkqhkiG9w0BAQEFAASCBKYwggSiAgEAAoIBAQDASR/pXRXQKGW5\nTX2NfVXHPbiw3pGz0qouCNTx4lSRAF2SYP5FlI+Brf0yKwx2ZojiMQZenX+xxuiu\nsGBJy3YanwhOzWPDqdB9MZKWE/pQCQSQ6zYvh6dc8ZR4yJ5lDaMWMU5GBJ20ekPn\n+onjN5uGidwZBMhmhvLmot3qV55KE3BNsPZUpnOswh2wSN81YyoPM2vYObInWkQv\nXpJhX/0WAOyE1PFjXlji4oKwiWx7KQOrn/fTcjYS9CSH2NPuFcqkDt25M7wq7MiD\nelnTq/vlIxxJGBE0CEUBzcwvG5WgzWhjsApWILyzFWrF27ZXcReYxvHbecNvZGgY\ng1mLOdubAgMBAAECggEAJYshi/L821PH6NJUfVfHc8t9UCtkz3OGfs6CpWfHkzg7\nDOWbQAKtsmhCU5VMLaH/gAqKb9bYo+FudQ1C/6WWPcRnXtuDaySw7IDNWjg0W4Qn\nPBRw0/7skp0onByvsJNlEGQ4IDuufxqQP68PVSn6V9569veUGVCoBJgwNB0/br7e\nE0LRkxbec5QkX3MVJiyS/SRDz/RS09mQ1CCg0B92SEcma7OGsMhJCQZkMgOa1TVM\nEAa2IE6IgZPipsSDGmdOwWm4YZtbJFI6U6u63XHhUXGoDx6/HfpVh2vln35PrIpn\nXvGnABd2PLE3EyRMALpYW+gs9N1UhKoW4kaua2JYAQKBgQDsM+ynucNJfLVY1k0t\nSyfOPUBb8q97DN2sk9QcVHVEg+ynzQfB8ZTs7P4ylCREIY2s7sp94/9KxiQPIrMr\nNj6KYPhtZF2+y41t5l3CoMYsnR025I4h4fv9Bg0jVdZLgxBWgmfEX+tPweS2rb00\n/BfGAvj5siNAcaNDcZTGXnTImwKBgQDQZuSe1PoFaEFtJvpnEQJwCDiqLjMsIvYi\n+i5p3yMXKlaOH7cM8pFJrwBMGf+WxK16pHNnEa+4zVM9bz86yRP3gUHvvqJbzvre\nnfNoM1zpYg06cZtV5ee4OS7pwt1vB9mj+oy8XSbQfXwr9uvd2GGKHigPbY2zhsj+\nogTjUZDpAQKBgAXf7LznM+I6BdCl09mSivToNReUW6T11vWZ36asuxXvKg2qXc0H\nEyspYdEkOhqvsvRgJA0phIn5j6AIvugOO1P5wXQHEQXTzjqzhhV3Jjap2bYpzRcu\npbPPWLhORDwwkFF2gNozgIjFS8j3XUNaGcVFAahEM/hAW00sIAUnCESNAoGAY3IF\n/Ejy+auTNOvZp171g9JYf9TF9HTGcVBi34Br9TztyqoVpmcFr1yDzszFKwO1KIXa\nz78f1Baedv1j9cBH995FQYr9XMP68En9Aaco2fFBELdvgWDQ3xbibQfgtH/Rei8w\nAx6MTAblPvF4AgekG81iHmKPsLBLrz5PCM4+UQECgYAn6qzkA5Dre3K+6eJxNBhE\naDzZ8QzC1ZIY62ju2niyIeoFK5IaZHVWSPNm5GCcJS2vvdemEOfET36NomXEqqeS\nEvRzbhz3gmbw9OcT/u1cTCg816f6wE/FfDqXQQpTCQKInWEHMKHtp7QqD9Y1NZgS\nPswGU4kCx0ZfcVWV8ERabw==\n-----END PRIVATE KEY-----\n",
  "client_email": "firebase-adminsdk-xc2s0@mobile-2f635.iam.gserviceaccount.com",
  "client_id": "103290552490064304621",
  "auth_uri": "https://accounts.google.com/o/oauth2/auth",
  "token_uri": "https://accounts.google.com/o/oauth2/token",
  "auth_provider_x509_cert_url": "https://www.googleapis.com/oauth2/v1/certs",
  "client_x509_cert_url": "https://www.googleapis.com/robot/v1/metadata/x509/firebase-adminsdk-xc2s0%40mobile-2f635.iam.gserviceaccount.com"
}
